dezvoltarea-sistemelor-fizice-utilizand-microprocesoare/imagini/wokwi-logic.vcd
$version Generated by Wokwi.com $end
$date Sun, 06 Oct 2024 22:11:18 GMT $end
$timescale 1ns $end
$scope module logic $end
$var wire 1 ! D0 $end
$var wire 1 " D1 $end
$var wire 1 # D2 $end
$var wire 1 $ D3 $end
$upscope $end
$enddefinitions $end
#0
0!
#0
0"
#0
0#
#0
0$
#29437
1"
#44000
1!
#47500
0!
#51375
1!
#54875
0!
#58750
1!
#62249
0!
#66125
1!
#69625
0!
#73500
1!
#77000
0!
#80875
1!
#84375
0!
#88250
1!
#91750
0!
#95625
1!
#99125
0!
#103000
1!
#106500
0!
#110375
1!
#113875
0!
#117750
1!
#121250
0!
#125124
1!
#128625
0!
#132500
1!
#136000
0!
#139875
1!
#143375
0!
#147250
1!
#150750
0!
#154625
1!
#158125
0!
#162000
1!
#165500
0!
#169375
1!
#172875
0!
#176750
1!
#180250
0!
#184125
1!
#187625
0!
#191500
1!
#195000
0!
#198875
1!
#202375
0!
#206250
1!
#209750
0!
#213625
1!
#217125
0!
#221000
1!
#224500
0!
#228375
1!
#231875
0!
#235750
1!
#239250
0!
#243125
1!
#246625
0!
#250500
1!
#254000
0!
#257875
1!
#261375
0!
#265250
1!
#268750
0!
#272625
1!
#276125
0!
#280000
1!
#283500
0!
#287375
1!
#290875
0!
#294750
1!
#298250
0!
#302125
1!
#305625
0!
#309500
1!
#313000
0!
#316875
1!
#320375
0!
#324250
1!
#327750
0!
#331625
1!
#335125
0!
#339000
1!
#342500
0!
#346375
1!
#349875
0!
#353750
1!
#357250
0!
#361125
1!
#364625
0!
#368500
1!
#372000
0!
#375875
1!
#379375
0!
#383250
1!
#386750
0!
#390625
1!
#394125
0!
#398000
1!
#401500
0!
#405375
1!
#408875
0!
#412750
1!
#416250
0!
#420125
1!
#423625
0!
#427500
1!
#431000
0!
#434875
1!
#438375
0!
#442250
1!
#445750
0!
#449625
1!
#453125
0!
#457000
1!
#460500
0!
#464375
1!
#467875
0!
#471750
1!
#475250
0!
#479125
1!
#482625
0!
#486500
1!
#490000
0!
#493874
1!
#497375
0!
#501249
1!
#504750
0!
#508624
1!
#512125
0!
#515999
1!
#519500
0!
#523374
1!
#526875
0!
#530750
1!
#534250
0!
#538125
1!
#541625
0!
#545500
1!
#549000
0!
#552875
1!
#556375
0!
#560250
1!
#563750
0!
#567625
1!
#571125
0!
#575000
1!
#578500
0!
#582375
1!
#585875
0!
#589750
1!
#593250
0!
#597125
1!
#600625
0!
#604500
1!
#608000
0!
#611875
1!
#615375
0!
#619250
1!
#622750
0!
#626625
1!
#630125
0!
#634000
1!
#637500
0!
#641375
1!
#644875
0!
#648750
1!
#652250
0!
#656125
1!
#659625
0!
#663500
1!
#667000
0!
#670875
1!
#674375
0!
#678250
1!
#681750
0!
#685625
1!
#689125
0!
#693000
1!
#696500
0!
#700375
1!
#703875
0!
#707750
1!
#711250
0!
#715125
1!
#718625
0!
#722500
1!
#726000
0!
#729875
1!
#733375
0!
#737250
1!
#740750
0!
#744625
1!
#748125
0!
#752000
1!
#755500
0!
#759375
1!
#762875
0!
#766750
1!
#770250
0!
#774125
1!
#777625
0!
#781500
1!
#785000
0!
#788875
1!
#792375
0!
#796250
1!
#799750
0!
#803625
1!
#807125
0!
#811000
1!
#814500
0!
#818375
1!
#821875
0!
#825750
1!
#829250
0!
#833125
1!
#836625
0!
#840500
1!
#844000
0!
#847875
1!
#851375
0!
#855250
1!
#858750
0!
#862625
1!
#866125
0!
#870000
1!
#873500
0!
#877375
1!
#880875
0!
#884750
1!
#888250
0!
#892125
1!
#895625
0!
#899500
1!
#903000
0!
#906875
1!
#910375
0!
#914250
1!
#917750
0!
#921625
1!
#925125
0!
#929000
1!
#932500
0!
#936375
1!
#939875
0!
#943750
1!
#947250
0!
#951125
1!
#954625
0!
#958500
1!
#962000
0!
#965875
1!
#969375
0!
#973250
1!
#976750
0!
#980625
1!
#984125
0!
#988000
1!
#991500
0!
#995375
1!
#998875
0!
#1002750
1!
#1006250
0!
#1010125
1!
#1013625
0!
#1017500
1!
#1021000
0!
#1024875
1!
#1028375
0!
#1038249
1!
#1041749
0!
#1045624
1!
#1049125
0!
#1053000
1!
#1056500
0!
#1060375
1!
#1063875
0!
#1067750
1!
#1071250
0!
#1075125
1!
#1078625
0!
#1082500
1!
#1086000
0!
#1089875
1!
#1093375
0!
#1097250
1!
#1100750
0!
#1104625
1!
#1108125
0!
#1112000
1!
#1115500
0!
#1119375
1!
#1122875
0!
#1126750
1!
#1130250
0!
#1134125
1!
#1137625
0!
#1141500
1!
#1145000
0!
#1148875
1!
#1152375
0!
#1156250
1!
#1159750
0!
#1163625
1!
#1167125
0!
#1171000
1!
#1174500
0!
#1178375
1!
#1181875
0!
#1185750
1!
#1189250
0!
#1193125
1!
#1196625
0!
#1200500
1!
#1204000
0!
#1207875
1!
#1211375
0!
#1215250
1!
#1218750
0!
#1222625
1!
#1226125
0!
#1230000
1!
#1233500
0!
#1237375
1!
#1240875
0!
#1244750
1!
#1248250
0!
#1252125
1!
#1255625
0!
#1259500
1!
#1263000
0!
#1266875
1!
#1270375
0!
#1274250
1!
#1277750
0!
#1281625
1!
#1285125
0!
#1289000
1!
#1292500
0!
#1296375
1!
#1299875
0!
#1303750
1!
#1307250
0!
#1311125
1!
#1314625
0!
#1318500
1!
#1322000
0!
#1325875
1!
#1329375
0!
#1333250
1!
#1336750
0!
#1340625
1!
#1344125
0!
#1348000
1!
#1351500
0!
#1355375
1!
#1358875
0!
#1362750
1!
#1366250
0!
#1370125
1!
#1373625
0!
#1377500
1!
#1381000
0!
#1384875
1!
#1388375
0!
#1392250
1!
#1395750
0!
#1399625
1!
#1403125
0!
#1407000
1!
#1410500
0!
#1414375
1!
#1417875
0!
#1421750
1!
#1425250
0!
#1429125
1!
#1432625
0!
#1436500
1!
#1440000
0!
#1443875
1!
#1447375
0!
#1451250
1!
#1454750
0!
#1458625
1!
#1462125
0!
#1466000
1!
#1469500
0!
#1473375
1!
#1476875
0!
#1480750
1!
#1484250
0!
#1488125
1!
#1491625
0!
#1495500
1!
#1499000
0!
#1502875
1!
#1506375
0!
#1510250
1!
#1513750
0!
#1517625
1!
#1521125
0!
#1525000
1!
#1528500
0!
#1532375
1!
#1534500
1#
#1535875
0!
#1539750
1!
#1543250
0!
#1547125
1!
#1550625
0!
#1554500
1!
#1558000
0!
#1561875
1!
#1565375
0!
#1569250
1!
#1572750
0!
#1576625
1!
#1580125
0!
#1584000
1!
#1587500
0!
#1591375
1!
#1594875
0!
#1598750
1!
#1602250
0!
#1606125
1!
#1609625
0!
#1613500
1!
#1617000
0!
#1620875
1!
#1624375
0!
#1628250
1!
#1631750
0!
#1635625
1!
#1639125
0!
#1643000
1!
#1646500
0!
#1650375
1!
#1653875
0!
#1657750
1!
#1661250
0!
#1665125
1!
#1668625
0!
#1672500
1!
#1676000
0!
#1679875
1!
#1683375
0!
#1687250
1!
#1690750
0!
#1694625
1!
#1698125
0!
#1702000
1!
#1705500
0!
#1709375
1!
#1712875
0!
#1716750
1!
#1720250
0!
#1724125
1!
#1727625
0!
#1731500
1!
#1735000
0!
#1738875
1!
#1742375
0!
#1746250
1!
#1749750
0!
#1753625
1!
#1757125
0!
#1761000
1!
#1764500
0!
#1768375
1!
#1771875
0!
#1775750
1!
#1779250
0!
#1783125
1!
#1786625
0!
#1790500
1$
#1790500
1!
#1794000
0!
#1797875
1!
#1801375
0!
#1805250
1!
#1808750
0!
#1812625
1!
#1816125
0!
#1820000
1!
#1823500
0!
#1827375
1!
#1830875
0!
#1834750
1!
#1838250
0!
#1842125
1!
#1845625
0!
#1849500
1!
#1853000
0!
#1856875
1!
#1860375
0!
#1864250
1!
#1867750
0!
#1871625
1!
#1875125
0!
#1879000
1!
#1882500
0!
#1886375
1!
#1889875
0!
#1893750
1!
#1897250
0!
#1901125
1!
#1904625
0!
#1908500
1!
#1912000
0!
#1915875
1!
#1919375
0!
#1923250
1!
#1926750
0!
#1930625
1!
#1934125
0!
#1938000
1!
#1941500
0!
#1945375
1!
#1948875
0!
#1952750
1!
#1956250
0!
#1960125
1!
#1963625
0!
#1967500
1!
#1971000
0!
#1974875
1!
#1978375
0!
#1982250
1!
#1985750
0!
#1989625
1!
#1993125
0!
#1997000
1!
#2000500
0!
#2004375
1!
#2007875
0!
#2011750
1!
#2015250
0!
#2019125
1!
#2022625
0!
#2026500
1!
#2030000
0!
#2033875
1!
#2037375
0!
#2041250
1!
#2044750
0!
#2048625
1!
#2052125
0!
#2062000
1!
#2065500
0!
#2069375
1!
#2072875
0!
#2076750
1!
#2080250
0!
#2084125
1!
#2087625
0!
#2091500
1!
#2095000
0!
#2098875
1!
#2102375
0!
#2106250
1!
#2109750
0!
#2113625
1!
#2117125
0!
#2121000
1!
#2124500
0!
#2128375
1!
#2131875
0!
#2135750
1!
#2139250
0!
#2143125
1!
#2146625
0!
#2150500
1!
#2154000
0!
#2157875
1!
#2161375
0!
#2165250
1!
#2168750
0!
#2172625
1!
#2176125
0!
#2180000
1!
#2183500
0!
#2187375
1!
#2190875
0!
#2194750
1!
#2198250
0!
#2202125
1!
#2205625
0!
#2209500
1!
#2213000
0!
#2216875
1!
#2220375
0!
#2224250
1!
#2227750
0!
#2231625
1!
#2235125
0!
#2239000
1!
#2242500
0!
#2246375
1!
#2249875
0!
#2253750
1!
#2257250
0!
#2261125
1!
#2264625
0!
#2268500
1!
#2272000
0!
#2275875
1!
#2279375
0!
#2283250
1!
#2286750
0!
#2290625
1!
#2294125
0!
#2298000
1!
#2301500
0!
#2302500
0$
#2305375
1!
#2308875
0!
#2312750
1!
#2316250
0!
#2320125
1!
#2323625
0!
#2327500
1!
#2331000
0!
#2334875
1!
#2338375
0!
#2342250
1!
#2345750
0!
#2349625
1!
#2353125
0!
#2357000
1!
#2360500
0!
#2364375
1!
#2367875
0!
#2371750
1!
#2375250
0!
#2379125
1!
#2382625
0!
#2386500
1!
#2390000
0!
#2393875
1!
#2397375
0!
#2401250
1!
#2404750
0!
#2408625
1!
#2412125
0!
#2416000
1!
#2419500
0!
#2423375
1!
#2426875
0!
#2430750
1!
#2434250
0!
#2438125
1!
#2441625
0!
#2445500
1!
#2449000
0!
#2452875
1!
#2456375
0!
#2460250
1!
#2463750
0!
#2467625
1!
#2471125
0!
#2475000
1!
#2478500
0!
#2482375
1!
#2485875
0!
#2489750
1!
#2493250
0!
#2497125
1!
#2500625
0!
#2504500
1!
#2508000
0!
#2511875
1!
#2515375
0!
#2519250
1!
#2522750
0!
#2526625
1!
#2530125
0!
#2534000
1!
#2537500
0!
#2541375
1!
#2544875
0!
#2548750
1!
#2552250
0!
#2556125
1!
#2558500
0#
#2559625
0!
#2563500
1!
#2567000
0!
#2570875
1!
#2574375
0!
#2578250
1!
#2581750
0!
#2585625
1!
#2589125
0!
#2593000
1!
#2596500
0!
#2600375
1!
#2603875
0!
#2607750
1!
#2611250
0!
#2615125
1!
#2618625
0!
#2622500
1!
#2626000
0!
#2629875
1!
#2633375
0!
#2637250
1!
#2640750
0!
#2644625
1!
#2648125
0!
#2652000
1!
#2655500
0!
#2659375
1!
#2662875
0!
#2666750
1!
#2670250
0!
#2674125
1!
#2677625
0!
#2681500
1!
#2685000
0!
#2688875
1!
#2692375
0!
#2696250
1!
#2699750
0!
#2703625
1!
#2707125
0!
#2711000
1!
#2714500
0!
#2718375
1!
#2721875
0!
#2725750
1!
#2729250
0!
#2733125
1!
#2736625
0!
#2740500
1!
#2744000
0!
#2747875
1!
#2751375
0!
#2755250
1!
#2758750
0!
#2762625
1!
#2766125
0!
#2770000
1!
#2773500
0!
#2777375
1!
#2780875
0!
#2784750
1!
#2788250
0!
#2792125
1!
#2795625
0!
#2799500
1!
#2803000
0!
#2806875
1!
#2810375
0!
#2814250
1!
#2817750
0!
#2821625
1!
#2825125
0!
#2829000
1!
#2832500
0!
#2836375
1!
#2839875
0!
#2843750
1!
#2847250
0!
#2851125
1!
#2854625
0!
#2858500
1!
#2862000
0!
#2865875
1!
#2869375
0!
#2873250
1!
#2876750
0!
#2880625
1!
#2884125
0!
#2888000
1!
#2891500
0!
#2895375
1!
#2898875
0!
#2902750
1!
#2906250
0!
#2910125
1!
#2913625
0!
#2917500
1!
#2921000
0!
#2924875
1!
#2928375
0!
#2932250
1!
#2935750
0!
#2939625
1!
#2943125
0!
#2947000
1!
#2950500
0!
#2954375
1!
#2957875
0!
#2961750
1!
#2965250
0!
#2969125
1!
#2972625
0!
#2976500
1!
#2980000
0!
#2983875
1!
#2987375
0!
#2991250
1!
#2994750
0!
#2998625
1!
#3002125
0!
#3006000
1!
#3009500
0!
#3013375
1!
#3016875
0!
#3020750
1!
#3024250
0!
#3028125
1!
#3031625
0!
#3035500
1!
#3039000
0!
#3042875
1!
#3046375
0!
#3050250
1!
#3053750
0!
#3057625
1!
#3061125
0!
#3065000
1!
#3068500
0!
#3072375
1!
#3075875
0!
#3085750
1!
#3089250
0!
#3093125
1!
#3096625
0!
#3100500
1!
#3104000
0!
#3107875
1!
#3111375
0!
#3115250
1!
#3118750
0!
#3122625
1!
#3126125
0!
#3130000
1!
#3133500
0!
#3137375
1!
#3140875
0!
#3144750
1!
#3148250
0!
#3152125
1!
#3155625
0!
#3159500
1!
#3163000
0!
#3166875
1!
#3170375
0!
#3174250
1!
#3177750
0!
#3181625
1!
#3185125
0!
#3189000
1!
#3192500
0!
#3196375
1!
#3199875
0!
#3203750
1!
#3207250
0!
#3211125
1!
#3214625
0!
#3218500
1!
#3222000
0!
#3225875
1!
#3229375
0!
#3233250
1!
#3236750
0!
#3240625
1!
#3244125
0!
#3248000
1!
#3251500
0!
#3255375
1!
#3258875
0!
#3262750
1!
#3266250
0!
#3270125
1!
#3273625
0!
#3277500
1!
#3281000
0!
#3284875
1!
#3288375
0!
#3292250
1!
#3295750
0!
#3299625
1!
#3303125
0!
#3307000
1!
#3310500
0!
#3314375
1!
#3317875
0!
#3321750
1!
#3325250
0!
#3329125
1!
#3332625
0!
#3336500
1!
#3340000
0!
#3343875
1!
#3347375
0!
#3351250
1!
#3354750
0!
#3358625
1!
#3362125
0!
#3366000
1!
#3369500
0!
#3373375
1!
#3376875
0!
#3380750
1!
#3384250
0!
#3388125
1!
#3391625
0!
#3395500
1!
#3399000
0!
#3402875
1!
#3406375
0!
#3410250
1!
#3413750
0!
#3417625
1!
#3421125
0!
#3425000
1!
#3428500
0!
#3432375
1!
#3435875
0!
#3439750
1!
#3443250
0!
#3447125
1!
#3450625
0!
#3454500
1!
#3458000
0!
#3461875
1!
#3465375
0!
#3469250
1!
#3472750
0!
#3476625
1!
#3480125
0!
#3484000
1!
#3487500
0!
#3491375
1!
#3494875
0!
#3498750
1!
#3502250
0!
#3506125
1!
#3509625
0!
#3513500
1!
#3517000
0!
#3520875
1!
#3524375
0!
#3528250
1!
#3531750
0!
#3535625
1!
#3539125
0!
#3543000
1!
#3546500
0!
#3550375
1!
#3553875
0!
#3557750
1!
#3561250
0!
#3565125
1!
#3568625
0!
#3572500
1!
#3574500
1#
#3576000
0!
#3579875
1!
#3583375
0!
#3587250
1!
#3590750
0!
#3594625
1!
#3598125
0!
#3602000
1!
#3605500
0!
#3609375
1!
#3612875
0!
#3616750
1!
#3620250
0!
#3624125
1!
#3627625
0!
#3631500
1!
#3635000
0!
#3638875
1!
#3642375
0!
#3646250
1!
#3649750
0!
#3653625
1!
#3657125
0!
#3661000
1!
#3664500
0!
#3668375
1!
#3671875
0!
#3675750
1!
#3679250
0!
#3683125
1!
#3686625
0!
#3690500
1!
#3694000
0!
#3697875
1!
#3701375
0!
#3705250
1!
#3708750
0!
#3712625
1!
#3716125
0!
#3720000
1!
#3723500
0!
#3727375
1!
#3730875
0!
#3734750
1!
#3738250
0!
#3742125
1!
#3745625
0!
#3749500
1!
#3753000
0!
#3756875
1!
#3760375
0!
#3764250
1!
#3767750
0!
#3771625
1!
#3775125
0!
#3779000
1!
#3782500
0!
#3786375
1!
#3789875
0!
#3793750
1!
#3797250
0!
#3801125
1!
#3804625
0!
#3808500
1!
#3812000
0!
#3815875
1!
#3819375
0!
#3823250
1!
#3826750
0!
#3830500
1$
#3830625
1!
#3834125
0!
#3838000
1!
#3841500
0!
#3845375
1!
#3848875
0!
#3852750
1!
#3856250
0!
#3860125
1!
#3863625
0!
#3867500
1!
#3871000
0!
#3874875
1!
#3878375
0!
#3882250
1!
#3885750
0!
#3889625
1!
#3893125
0!
#3897000
1!
#3900500
0!
#3904375
1!
#3907875
0!
#3911750
1!
#3915250
0!
#3919125
1!
#3922625
0!
#3926500
1!
#3930000
0!
#3933875
1!
#3937375
0!
#3941250
1!
#3944750
0!
#3948625
1!
#3952125
0!
#3956000
1!
#3959500
0!
#3963375
1!
#3966875
0!
#3970750
1!
#3974250
0!
#3978125
1!
#3981625
0!
#3985500
1!
#3989000
0!
#3992875
1!
#3996375
0!
#4000250
1!
#4003750
0!
#4007625
1!
#4011125
0!
#4015000
1!
#4018500
0!
#4022375
1!
#4025875
0!
#4029750
1!
#4033250
0!
#4037125
1!
#4040625
0!
#4044500
1!
#4048000
0!
#4051875
1!
#4055375
0!
#4059250
1!
#4062750
0!
#4066625
1!
#4070125
0!
#4074000
1!
#4077500
0!
#4081375
1!
#4084875
0!
#4088750
1!
#4092250
0!
#4096125
1!
#4099625
0!
#4109500
1!
#4113000
0!
#4116875
1!
#4120375
0!
#4124250
1!
#4127750
0!
#4131625
1!
#4135125
0!
#4139000
1!
#4142500
0!
#4146375
1!
#4149875
0!
#4153750
1!
#4157250
0!
#4161125
1!
#4164625
0!
#4168500
1!
#4172000
0!
#4175875
1!
#4179375
0!
#4183250
1!
#4186750
0!
#4190625
1!
#4194125
0!
#4198000
1!
#4201500
0!
#4205375
1!
#4208875
0!
#4212750
1!
#4216250
0!
#4220125
1!
#4223625
0!
#4227500
1!
#4231000
0!
#4234875
1!
#4238375
0!
#4242250
1!
#4245750
0!
#4249625
1!
#4253125
0!
#4257000
1!
#4260500
0!
#4264375
1!
#4267875
0!
#4271750
1!
#4275250
0!
#4279125
1!
#4282625
0!
#4286500
1!
#4290000
0!
#4293875
1!
#4297375
0!
#4301250
1!
#4304750
0!
#4308625
1!
#4312125
0!
#4316000
1!
#4319500
0!
#4323375
1!
#4326875
0!
#4330750
1!
#4334250
0!
#4338125
1!
#4341625
0!
#4342500
0$
#4345500
1!
#4349000
0!
#4352875
1!
#4356375
0!
#4360250
1!
#4363750
0!
#4367625
1!
#4371125
0!
#4375000
1!
#4378500
0!
#4382375
1!
#4385875
0!
#4389750
1!
#4393250
0!
#4397125
1!
#4400625
0!
#4404500
1!
#4408000
0!
#4411875
1!
#4415375
0!
#4419250
1!
#4422750
0!
#4426625
1!
#4430125
0!
#4434000
1!
#4437500
0!
#4441375
1!
#4444875
0!
#4448750
1!
#4452250
0!
#4456125
1!
#4459625
0!
#4463500
1!
#4467000
0!
#4470875
1!
#4474375
0!
#4478250
1!
#4481750
0!
#4485625
1!
#4489125
0!
#4493000
1!
#4496500
0!
#4500375
1!
#4503875
0!
#4507750
1!
#4511250
0!
#4515125
1!
#4518625
0!
#4522500
1!
#4526000
0!
#4529875
1!
#4533375
0!
#4537250
1!
#4540750
0!
#4544625
1!
#4548125
0!
#4552000
1!
#4555500
0!
#4559375
1!
#4562875
0!
#4566750
1!
#4570250
0!
#4574125
1!
#4577625
0!
#4581500
1!
#4585000
0!
#4588875
1!
#4592375
0!
#4596250
1!
#4598500
0#
#4599750
0!
#4603625
1!
#4607125
0!
#4611000
1!
#4614500
0!
#4618375
1!
#4621875
0!
#4625750
1!
#4629250
0!
#4633125
1!
#4636625
0!
#4640500
1!
#4644000
0!
#4647875
1!
#4651375
0!
#4655250
1!
#4658750
0!
#4662625
1!
#4666125
0!
#4670000
1!
#4673500
0!
#4677375
1!
#4680875
0!
#4684750
1!
#4688250
0!
#4692125
1!
#4695625
0!
#4699500
1!
#4703000
0!
#4706875
1!
#4710375
0!
#4714250
1!
#4717750
0!
#4721625
1!
#4725125
0!
#4729000
1!
#4732500
0!
#4736375
1!
#4739875
0!
#4743750
1!
#4747250
0!
#4751125
1!
#4754625
0!
#4758500
1!
#4762000
0!
#4765875
1!
#4769375
0!
#4773250
1!
#4776750
0!
#4780625
1!
#4784125
0!
#4788000
1!
#4791500
0!
#4795375
1!
#4798875
0!
#4802750
1!
#4806250
0!
#4810125
1!
#4813625
0!
#4817500
1!
#4821000
0!
#4824875
1!
#4828375
0!
#4832250
1!
#4835750
0!
#4839625
1!
#4843125
0!
#4847000
1!
#4850500
0!
#4854375
1!
#4857875
0!
#4861750
1!
#4865250
0!
#4869125
1!
#4872625
0!
#4876500
1!
#4880000
0!
#4883875
1!
#4887375
0!
#4891250
1!
#4894750
0!
#4898625
1!
#4902125
0!
#4906000
1!
#4909500
0!
#4913375
1!
#4916875
0!
#4920750
1!
#4924250
0!
#4928125
1!
#4931625
0!
#4935500
1!
#4939000
0!
#4942875
1!
#4946375
0!
#4950250
1!
#4953750
0!
#4957625
1!
#4961125
0!
#4965000
1!
#4968500
0!
#4972375
1!
#4975875
0!
#4979750
1!
#4983250
0!
#4987125
1!
#4990625
0!
#4994500
1!
#4998000
0!
#5001875
1!
#5005375
0!
#5009250
1!
#5012750
0!
#5016625
1!
#5020125
0!
#5024000
1!
#5027500
0!
#5031375
1!
#5034875
0!
#5038750
1!
#5042250
0!
#5046125
1!
#5049625
0!
#5053500
1!
#5057000
0!
#5060875
1!
#5064375
0!
#5068250
1!
#5071750
0!
#5075625
1!
#5079125
0!
#5083000
1!
#5086500
0!
#5090375
1!
#5093875
0!
#5097750
1!
#5101250
0!
#5105125
1!
#5108625
0!
#5112500
1!
#5116000
0!
#5119875
1!
#5123375
0!
#5133250
1!
#5136750
0!
#5140625
1!
#5144125
0!
#5148000
1!
#5151500
0!
#5155375
1!
#5158875
0!
#5162750
1!
#5166250
0!
#5170125
1!
#5173625
0!
#5177500
1!
#5181000
0!
#5184875
1!
#5188375
0!
#5192250
1!
#5195750
0!
#5199625
1!
#5203125
0!
#5207000
1!
#5210500
0!
#5214375
1!
#5217875
0!
#5221750
1!
#5225250
0!
#5229125
1!
#5232625
0!
#5236500
1!
#5240000
0!
#5243875
1!
#5247375
0!
#5251250
1!
#5254750
0!
#5258625
1!
#5262125
0!
#5266000
1!
#5269500
0!
#5273375
1!
#5276875
0!
#5280750
1!
#5284250
0!
#5288125
1!
#5291625
0!
#5295500
1!
#5299000
0!
#5302875
1!
#5306375
0!
#5310250
1!
#5313750
0!
#5317625
1!
#5321125
0!
#5325000
1!
#5328500
0!
#5332375
1!
#5335875
0!
#5339750
1!
#5343250
0!
#5347125
1!
#5350625
0!
#5354500
1!
#5358000
0!
#5361875
1!
#5365375
0!
#5369250
1!
#5372750
0!
#5376625
1!
#5380125
0!
#5384000
1!
#5387500
0!
#5391375
1!
#5394875
0!
#5398750
1!
#5402250
0!
#5406125
1!
#5409625
0!
#5413500
1!
#5417000
0!
#5420875
1!
#5424375
0!
#5428250
1!
#5431750
0!
#5435625
1!
#5439125
0!
#5443000
1!
#5446500
0!
#5450375
1!
#5453875
0!
#5457750
1!
#5461250
0!
#5465125
1!
#5468625
0!
#5472500
1!
#5476000
0!
#5479875
1!
#5483375
0!
#5487250
1!
#5490750
0!
#5494625
1!
#5498125
0!
#5502000
1!
#5505500
0!
#5509375
1!
#5512875
0!
#5516750
1!
#5520250
0!
#5524125
1!
#5527625
0!
#5531500
1!
#5535000
0!
#5538875
1!
#5542375
0!
#5546250
1!
#5549750
0!
#5553625
1!
#5557125
0!
#5561000
1!
#5564500
0!
#5568375
1!
#5571875
0!
#5575750
1!
#5579250
0!
#5583125
1!
#5586625
0!
#5590500
1!
#5594000
0!
#5597875
1!
#5601375
0!
#5605250
1!
#5608750
0!
#5612625
1!
#5614500
1#
#5616125
0!
#5620000
1!
#5623500
0!
#5627375
1!
#5630875
0!
#5634750
1!
#5638250
0!
#5642125
1!
#5645625
0!
#5649500
1!
#5653000
0!
#5656875
1!
#5660375
0!
#5664250
1!
#5667750
0!
#5671625
1!
#5675125
0!
#5679000
1!
#5682500
0!
#5686375
1!
#5689875
0!
#5693750
1!
#5697250
0!
#5701125
1!
#5704625
0!
#5708500
1!
#5712000
0!
#5715875
1!
#5719375
0!
#5723250
1!
#5726750
0!
#5730625
1!
#5734125
0!
#5738000
1!
#5741500
0!
#5745375
1!
#5748875
0!
#5752750
1!
#5756250
0!
#5760125
1!
#5763625
0!
#5767500
1!
#5771000
0!
#5774875
1!
#5778375
0!
#5782250
1!
#5785750
0!
#5789625
1!
#5793125
0!
#5797000
1!
#5800500
0!
#5804375
1!
#5807875
0!
#5811750
1!
#5815250
0!
#5819125
1!
#5822625
0!
#5826500
1!
#5830000
0!
#5833875
1!
#5837375
0!
#5841250
1!
#5844750
0!
#5848625
1!
#5852125
0!
#5856000
1!
#5859500
0!
#5863375
1!
#5866875
0!
#5870500
1$
#5870750
1!
#5874250
0!
#5878125
1!
#5881625
0!
#5885500
1!
#5889000
0!
#5892875
1!
#5896375
0!
#5900250
1!
#5903750
0!
#5907625
1!
#5911125
0!
#5915000
1!
#5918500
0!
#5922375
1!
#5925875
0!
#5929750
1!
#5933250
0!
#5937125
1!
#5940625
0!
#5944500
1!
#5948000
0!
#5951875
1!
#5955375
0!
#5959250
1!
#5962750
0!
#5966625
1!
#5970125
0!
#5974000
1!
#5977500
0!
#5981375
1!
#5984875
0!
#5988750
1!
#5992250
0!
#5996125
1!
#5999625
0!
#6003500
1!
#6007000
0!
#6010875
1!
#6014375
0!
#6018250
1!
#6021750
0!
#6025625
1!
#6029125
0!
#6033000
1!
#6036500
0!
#6040375
1!
#6043875
0!
#6047750
1!
#6051250
0!
#6055125
1!
#6058625
0!
#6062500
1!
#6066000
0!
#6069875
1!
#6073375
0!
#6077250
1!
#6080750
0!
#6084625
1!
#6088125
0!
#6092000
1!
#6095500
0!
#6099375
1!
#6102875
0!
#6106750
1!
#6110250
0!
#6114125
1!
#6117625
0!
#6121500
1!
#6125000
0!
#6128875
1!
#6132375
0!
#6136250
1!
#6139750
0!
#6143625
1!
#6147125
0!
#6157000
1!
#6160500
0!
#6164375
1!
#6167875
0!
#6171750
1!
#6175250
0!
#6179125
1!
#6182625
0!
#6186500
1!
#6190000
0!
#6193875
1!
#6197375
0!
#6201250
1!
#6204750
0!
#6208625
1!
#6212125
0!
#6216000
1!
#6219500
0!
#6223375
1!
#6226875
0!
#6230750
1!
#6234250
0!
#6238125
1!
#6241625
0!
#6245500
1!
#6249000
0!
#6252875
1!
#6256375
0!
#6260250
1!
#6263750
0!
#6267625
1!
#6271125
0!
#6275000
1!
#6278500
0!
#6282375
1!
#6285875
0!
#6289750
1!
#6293250
0!
#6297125
1!
#6300625
0!
#6304500
1!
#6308000
0!
#6311875
1!
#6315375
0!
#6319250
1!
#6322750
0!
#6326625
1!
#6330125
0!
#6334000
1!
#6337500
0!
#6341375
1!
#6344875
0!
#6348750
1!
#6352250
0!
#6356125
1!
#6359625
0!
#6363500
1!
#6367000
0!
#6370875
1!
#6374375
0!
#6378250
1!
#6381750
0!
#6382500
0$
#6385625
1!
#6389125
0!
#6393000
1!
#6396500
0!
#6400375
1!
#6403875
0!
#6407750
1!
#6411250
0!
#6415125
1!
#6418625
0!
#6422500
1!
#6426000
0!
#6429875
1!
#6433375
0!
#6437250
1!
#6440750
0!
#6444625
1!
#6448125
0!
#6452000
1!
#6455500
0!
#6459375
1!
#6462875
0!
#6466750
1!
#6470250
0!
#6474125
1!
#6477625
0!
#6481500
1!
#6485000
0!
#6488875
1!
#6492375
0!
#6496250
1!
#6499750
0!
#6503625
1!
#6507125
0!
#6511000
1!
#6514500
0!
#6518375
1!
#6521875
0!
#6525750
1!
#6529250
0!
#6533125
1!
#6536625
0!
#6540500
1!
#6544000
0!
#6547875
1!
#6551375
0!
#6555250
1!
#6558750
0!
#6562625
1!
#6566125
0!
#6570000
1!
#6573500
0!
#6577375
1!
#6580875
0!
#6584750
1!
#6588250
0!
#6592125
1!
#6595625
0!
#6599500
1!
#6603000
0!
#6606875
1!
#6610375
0!
#6614250
1!
#6617750
0!
#6621625
1!
#6625125
0!
#6629000
1!
#6632500
0!
#6636375
1!
#6638500
0#
#6639875
0!
#6643750
1!
#6647250
0!
#6651125
1!
#6654625
0!
#6658500
1!
#6662000
0!
#6665875
1!
#6669375
0!
#6673250
1!
#6676750
0!
#6680625
1!
#6684125
0!
#6688000
1!
#6691500
0!
#6695375
1!
#6698875
0!
#6702750
1!
#6706250
0!
#6710125
1!
#6713625
0!
#6717500
1!
#6721000
0!
#6724875
1!
#6728375
0!
#6732250
1!
#6735750
0!
#6739625
1!
#6743125
0!
#6747000
1!
#6750500
0!
#6754375
1!
#6757875
0!
#6761750
1!
#6765250
0!
#6769125
1!
#6772625
0!
#6776500
1!
#6780000
0!
#6783875
1!
#6787375
0!
#6791250
1!
#6794750
0!
#6798625
1!
#6802125
0!
#6806000
1!
#6809500
0!
#6813375
1!
#6816875
0!
#6820750
1!
#6824250
0!
#6828125
1!
#6831625
0!
#6835500
1!
#6839000
0!
#6842875
1!
#6846375
0!
#6850250
1!
#6853750
0!
#6857625
1!
#6861125
0!
#6865000
1!
#6868500
0!
#6872375
1!
#6875875
0!
#6879750
1!
#6883250
0!
#6887125
1!
#6890625
0!
#6894500
1!
#6898000
0!
#6901875
1!
#6905375
0!
#6909250
1!
#6912750
0!
#6916625
1!
#6920125
0!
#6924000
1!
#6927500
0!
#6931375
1!
#6934875
0!
#6938750
1!
#6942250
0!
#6946125
1!
#6949625
0!
#6953500
1!
#6957000
0!
#6960875
1!
#6964375
0!
